{
  "name": "sortie-server",
  "run_list": [
    "git",
    "apache2",
    "mod_wsgi",
    "webpy",
    "python3",
    "python3-setuptools",
    "dateutil",
    "sortie-server"
  ],
  "sortie_server": {
    "repo_url": "https://bitbucket.org/miladf/sortie-server.git",
    "download_path": "/tmp/sortie-server"
  }
}
